<?xml version="1.0" encoding="ASCII"?>
<sdkproject:SdkProject xmi:version="2.0" xmlns:xmi="http://www.omg.org/XMI" xmlns:xsi="http://www.w3.org/2001/XMLSchema-instance" xmlns:sdkproject="http://www.xilinx.com/sdkproject" name="sim" location="/home/jrs/Documents/git/piquantum/hardware/arty-a7/sim_vitis/sim" platform="/home/jrs/Documents/git/piquantum/hardware/arty-a7/sim_vitis/sim_platform/export/sim_platform/sim_platform.xpfm" platformUID="xilinx:arty-a7-35::0.0(custom)" systemProject="sim_system" sysConfig="sim_platform" runtime="C/C++" cpu="standalone_domain" cpuInstance="microblaze_0" os="standalone" mssSignature="de369de08c79c313d36c4698df0249d3">
  <configuration name="Debug" id="xilinx.gnu.mb.exe.debug.419057689">
    <configBuildOptions xsi:type="sdkproject:SdkOptions"/>
    <lastBuildOptions xsi:type="sdkproject:SdkOptions"/>
  </configuration>
  <configuration name="Release" id="xilinx.gnu.mb.exe.release.1612860238" dirty="true">
    <configBuildOptions xsi:type="sdkproject:SdkOptions"/>
  </configuration>
  <template appTemplateName="hello_world"/>
</sdkproject:SdkProject>
